<?xml version="1.0" encoding="UTF-8"?>
<!DOCTYPE svg PUBLIC "-//W3C//DTD SVG 1.1//EN" "http://www.w3.org/Graphics/SVG/1.1/DTD/svg11.dtd">
<!-- Creator: CorelDRAW 2017 -->
<svg xmlns="http://www.w3.org/2000/svg" xml:space="preserve" width="48px" height="48px" version="1.1" style="shape-rendering:geometricPrecision; text-rendering:geometricPrecision; image-rendering:optimizeQuality; fill-rule:evenodd; clip-rule:evenodd"
viewBox="0 0 0.906 0.907"
 xmlns:xlink="http://www.w3.org/1999/xlink">
 <defs>
  <style type="text/css">
   <![CDATA[
    .str0 {stroke:white;stroke-width:0.028;stroke-miterlimit:22.9256}
    .fil0 {fill:none}
    .fil1 {fill:white}
   ]]>
  </style>
 </defs>
 <g id="Layer_x0020_1">
  <metadata id="CorelCorpID_0Corel-Layer"/>
  <rect class="fil0" width="0.906" height="0.907"/>
 </g>
 <g id="White">
  <metadata id="CorelCorpID_1Corel-Layer"/>
  <circle class="fil0 str0" transform="matrix(6.67541E-12 -1.95005 1.95005 6.67987E-12 0.452925 0.453719)" r="0.189"/>
  <rect class="fil1" transform="matrix(4.999E-12 -1.20492 1.35139 4.05989E-12 0.216608 0.510673)" width="0.095" height="0.35"/>
 </g>
</svg>
